FirstName,LastNAme,Email,Mobile,"10th %","PU %","Degree %","MTech %","Home Town",RV-VLSIID,ProfilePic,placed,"Company Name"
"Vishnuvardhan Reddy",Yennam,vardhan908@gmail.com,9493152773,55,63,60.8,5.3,Kurnool,1ADPDB344039,http://nanochipsolutions.com/college/img/profilepic/,No,"si2chip,Apexsemi,Intel,Intel,Samsung,Altencalsoft labs,Dexcorr,Samsung,Intel,Aricent,IBM,wizchip"
Shweta,Jadhav,simple.shweta04@gmail.com,9407547145,74,58.22,69.44,7.52,Bangalore,1ADPDB344032,http://nanochipsolutions.com/college/img/profilepic/,No,"Altencalsoft labs,Dexcorr,Samsung,Intel,Aricent,IBM,wizchip,si2chip,Apexsemi,Intel,Intel,Samsung"
Shaik,"Zakir Hussain",shaikzakirhussain494@gmail.com,9505776653,80,79,64.28,0,Banglore,1ADPDB344029,http://nanochipsolutions.com/college/img/profilepic/,No,"Samsung,Intel,Aricent,IBM,wizchip,si2chip,Apexsemi,Intel,Intel,Samsung,Altencalsoft labs,Dexcorr"
Vineeth,Konchady,vineethkonchady@gmail.com,9632778593,8.2,82,62,0,Bangalore,1ADPDB344038,http://nanochipsolutions.com/college/img/profilepic/,No,"Apexsemi,Intel,Intel,Samsung,Altencalsoft labs,Dexcorr,Samsung,Intel,Aricent,IBM,wizchip,si2chip"
"Ravitej ",HK,"Rtej100@gmail.com ",9606731840,68,60,57,0,"Shimoga ",1ADPDB344027,http://nanochipsolutions.com/college/img/profilepic/,No,"Aricent,IBM,wizchip,si2chip,Apexsemi,Intel,Intel,Samsung,Altencalsoft labs,Dexcorr,Intel,Samsung"
NIVIYA,"T M",niviyatm@gmail.com,9995108658,97,90,65,0,BANGALORE,1ADPDB344022,http://nanochipsolutions.com/college/img/profilepic/,No,"IBM,wizchip,si2chip,Apexsemi,Intel,Intel,Samsung,Altencalsoft labs,Dexcorr,Intel,Samsung,Aricent"
Thugu,"Ananda Reddy",thuguanand427@gmail.com,9493366494,87.33,77.25,67.33,0,Bangalore,1ADPDB344035,http://nanochipsolutions.com/college/img/profilepic/,No,"Intel,Samsung,Altencalsoft labs,Dexcorr,Samsung,Intel,Aricent,IBM,wizchip,si2chip,Apexsemi,Intel"
